// Jest Snapshot v1, https://goo.gl/fbAQLP

exports[`Snapshots MTZ Exchange Balance; Dark mode; 1`] = `
<div>
  <div
    class="css-1564wnu"
  >
    <div
      class="css-19g4gj6"
    >
      <div
        class="css-1qyp71p"
      >
        <div
          class="css-7z4ufc"
        >
          <div
            class="css-1jcwds3"
          >
            <img
              class="css-8atqhb"
              src="/img/tezos.png"
            />
          </div>
        </div>
        <div
          class="css-3vwf31"
        >
          <div
            class="css-1jcwds3"
          >
            <img
              class="css-8atqhb"
              src="/img/"
            />
          </div>
        </div>
      </div>
      <div
        class="css-1ipn27h"
      >
        <span
          class="text css-1vkojef"
        >
          232.233 
          XTZ/MTZ
        </span>
        <div
          class="css-1qyp71p"
        >
          <span
            class="text css-l8fwn0"
          >
            0.00% of liquidity pool
          </span>
        </div>
      </div>
    </div>
    <div
      class="css-1w6kwoa"
    >
      <div
        class="css-1qyp71p"
      >
        <span
          class="text css-1vkojef"
        >
          0.000939 XTZ
        </span>
        <span
          class="text css-e42czz"
        >
          <span
            class="css-rkd6ay"
          >
            (
            $0.00
            )
          </span>
        </span>
      </div>
      <div
        class="css-1qyp71p"
      >
        <span
          class="text css-1vkojef"
        >
          0 MTZ
        </span>
        <span
          class="text css-e42czz"
        >
          <span
            class="css-rkd6ay"
          >
            (
            $0.00
            )
          </span>
        </span>
      </div>
    </div>
  </div>
</div>
`;

exports[`Snapshots TZG Exchange Balance; Light mode; 1`] = `
<div>
  <div
    class="css-nt65u9"
  >
    <div
      class="css-zbe2xp"
    >
      <div
        class="css-1qyp71p"
      >
        <div
          class="css-7z4ufc"
        >
          <div
            class="css-1jcwds3"
          >
            <img
              class="css-8atqhb"
              src="/img/tezos.png"
            />
          </div>
        </div>
        <div
          class="css-3vwf31"
        >
          <div
            class="css-1jcwds3"
          >
            <img
              class="css-8atqhb"
              src="/img/"
            />
          </div>
        </div>
      </div>
      <div
        class="css-1ipn27h"
      >
        <span
          class="text css-a1sm0x"
        >
          233,232 
          XTZ/TZG
        </span>
        <div
          class="css-1qyp71p"
        >
          <span
            class="text css-15ba6i5"
          >
            0.00% of liquidity pool
          </span>
        </div>
      </div>
    </div>
    <div
      class="css-ois6p4"
    >
      <div
        class="css-1qyp71p"
      >
        <span
          class="text css-1n2q5h8"
        >
          0.000023 XTZ
        </span>
        <span
          class="text css-11hapxs"
        >
          <span
            class="css-rkd6ay"
          >
            (
            $0.00
            )
          </span>
        </span>
      </div>
      <div
        class="css-1qyp71p"
      >
        <span
          class="text css-1n2q5h8"
        >
          0 TZG
        </span>
        <span
          class="text css-11hapxs"
        >
          <span
            class="css-rkd6ay"
          >
            (
            $0.00
            )
          </span>
        </span>
      </div>
    </div>
  </div>
</div>
`;
