{
    "kind": "temporary",
    "id": "proto.006-PsCARTHA.michelson_v1.script_rejected",
    "location": 7,
    "with": {
        "prim": "Pair",
        "args": [
            {
                "int": "1546544"
            },
            {
                "prim": "Unit"
            }
        ]
    }
}
