// Jest Snapshot v1, https://goo.gl/fbAQLP

exports[`Snapshots No transactions 1`] = `
<div>
  <div
    class="css-13hc1my"
  >
    <div
      class="css-1hrmuk2"
    >
      <span
        class="text css-16p1gat"
      >
        You do not have any recent Dexter transactions
      </span>
    </div>
  </div>
</div>
`;

exports[`Snapshots No transactions fetched 1`] = `
<div>
  <div
    class="css-13hc1my"
  >
    <div
      class="css-us7mx7"
    >
      <div
        class="css-1m8qapi"
      >
        <div />
        <div />
        <div />
        <div />
      </div>
    </div>
  </div>
</div>
`;

exports[`Snapshots With transactions 1`] = `
<div>
  <div
    class="css-13hc1my"
  >
    <div
      class="css-18rsxgv"
    >
      <a
        class="css-175hdtj"
        href="https://delphinet.tezblock.io/transaction/"
        target="_blank"
      >
        <div
          class="css-z08yav"
        >
          <div
            class="css-10koc32"
          >
            <div
              class="css-s3g0d2"
            >
              <img
                src="/icons/exchange.svg"
              />
            </div>
          </div>
          <div
            class="css-2tejdo"
          />
          <span
            class="text css-yomsd3"
          >
            Exchange:
          </span>
          <span
            class="text css-2n92o4"
          >
            100 XTZ for 2.423 MTZ
          </span>
          <div
            class="css-1crj5vn"
          >
            <div
              class="css-hvy70x"
            >
              <img
                src="/icons/external-link.svg"
              />
            </div>
          </div>
        </div>
      </a>
    </div>
  </div>
</div>
`;
