// Jest Snapshot v1, https://goo.gl/fbAQLP

exports[`Snapshots Blue 1`] = `
<div>
  <div
    class="css-1a02ggt"
  >
    <div
      class="css-fti7zr"
    >
      <div
        class="css-r2nm85"
      >
        <img
          src="/icons/and-blue.svg"
        />
      </div>
    </div>
  </div>
</div>
`;

exports[`Snapshots Normal 1`] = `
<div>
  <div
    class="css-1a02ggt"
  >
    <div
      class="css-fti7zr"
    >
      <div
        class="css-r2nm85"
      >
        <img
          src="/icons/and.svg"
        />
      </div>
    </div>
  </div>
</div>
`;
